<?xml version="1.0" encoding="UTF-8" standalone="no"?>
<svg
   xmlns:dc="http://purl.org/dc/elements/1.1/"
   xmlns:cc="http://creativecommons.org/ns#"
   xmlns:rdf="http://www.w3.org/1999/02/22-rdf-syntax-ns#"
   xmlns:svg="http://www.w3.org/2000/svg"
   xmlns="http://www.w3.org/2000/svg"
   xmlns:xlink="http://www.w3.org/1999/xlink"
   width="320.37955mm"
   height="32.700001mm"
   viewBox="0 0 320.37955 32.700001"
   version="1.1"
   id="svg4885">
  <defs
     id="defs4879">
    <radialGradient
       xlink:href="#linearGradient4772"
       id="radialGradient4774"
       cx="5"
       cy="25.199999"
       fx="5"
       fy="25.199999"
       r="5"
       gradientUnits="userSpaceOnUse"
       gradientTransform="matrix(0.48051288,0,0,0.54412356,-116.87598,136.23325)" />
    <linearGradient
       id="linearGradient4772">
      <stop
         style="stop-color:#d40000;stop-opacity:1;"
         offset="0"
         id="stop4768" />
      <stop
         style="stop-color:#d40000;stop-opacity:0;"
         offset="1"
         id="stop4770" />
    </linearGradient>
    <radialGradient
       xlink:href="#linearGradient4804"
       id="radialGradient4806"
       cx="320.00858"
       cy="289.44702"
       fx="320.00858"
       fy="289.44702"
       r="2.4025645"
       gradientTransform="matrix(1,0,0,1.1323807,-118.99633,-177.81906)"
       gradientUnits="userSpaceOnUse" />
    <linearGradient
       id="linearGradient4804">
      <stop
         style="stop-color:#ffe680;stop-opacity:1;"
         offset="0"
         id="stop4800" />
      <stop
         style="stop-color:#ffe680;stop-opacity:0;"
         offset="1"
         id="stop4802" />
    </linearGradient>
  </defs>
  <metadata
     id="metadata4882">
    <rdf:RDF>
      <cc:Work
         rdf:about="">
        <dc:format>image/svg+xml</dc:format>
        <dc:type
           rdf:resource="http://purl.org/dc/dcmitype/StillImage" />
        <dc:title></dc:title>
      </cc:Work>
    </rdf:RDF>
  </metadata>
  <g
     id="layer1"
     transform="matrix(1,0,0,0.94520863,116.87598,-116.13311)">
    <rect
       style="display:inline;opacity:1;fill:#8d8a79;fill-opacity:1;stroke:none;stroke-width:1.24347162;stroke-linecap:butt;stroke-linejoin:miter;stroke-miterlimit:4;stroke-dasharray:none;stroke-opacity:1;paint-order:stroke fill markers"
       id="rect6090-3-62"
       width="20"
       height="35.000008"
       x="23.503662"
       y="122.49818"
       mask="none" />
    <rect
       style="display:inline;opacity:1;fill:#8d8a79;fill-opacity:1;stroke:none;stroke-width:2.10840869;stroke-linecap:butt;stroke-linejoin:miter;stroke-miterlimit:4;stroke-dasharray:none;stroke-opacity:1;paint-order:stroke fill markers"
       id="rect6090-3"
       width="57.5"
       height="35.000008"
       x="-38.99633"
       y="122.49818"
       mask="none" />
    <rect
       style="display:inline;opacity:1;fill:#212320;fill-opacity:1;stroke:none;stroke-width:1.33836603;stroke-linecap:butt;stroke-linejoin:miter;stroke-miterlimit:4;stroke-dasharray:none;stroke-opacity:1;paint-order:stroke fill markers"
       id="rect4739-2"
       width="155"
       height="3.6850462"
       x="-108.99633"
       y="156.31316"
       ry="1.8425231"
       mask="none" />
    <path
       style="display:inline;opacity:1;fill:#918d84;fill-opacity:1;fill-rule:evenodd;stroke:none;stroke-width:1.67442596;stroke-linecap:butt;stroke-linejoin:miter;stroke-miterlimit:4;stroke-dasharray:none;stroke-opacity:0.80053908"
       d="m -92.608185,122.47566 c -18.888145,2.52251 -23.065325,24.29402 -23.888045,27.52252 0,5 7.49991,7.4998 9.99991,7.4998 h 12.500013 z"
       id="path6141"
       mask="none" />
    <path
       style="display:inline;opacity:1;fill:#8c887c;fill-opacity:1;stroke:none;stroke-width:1.96610129;stroke-linecap:butt;stroke-linejoin:miter;stroke-miterlimit:4;stroke-dasharray:none;stroke-opacity:1;paint-order:stroke fill markers"
       d="m -92.697741,122.49805 -1.298566,34.99993 h 50.000048 v -34.99993 z"
       id="rect6090-3-6"
       mask="none" />
    <path
       style="display:inline;fill:#8e7e64;fill-opacity:1;fill-rule:evenodd;stroke:#8d8a79;stroke-width:1;stroke-linecap:butt;stroke-linejoin:miter;stroke-miterlimit:4;stroke-dasharray:none;stroke-opacity:1;paint-order:fill markers stroke"
       d="m 43.503674,126.01153 -135.18901,0.12558 c -9.697034,1.30797 -15.286204,6.96404 -15.277104,13.8777 0.009,6.91366 5.61286,12.55545 12.793534,12.5951 l 137.67258,0.17467 z"
       id="path6143"
       mask="none" />
    <path
       style="display:inline;fill:#28170b;fill-opacity:1;fill-rule:evenodd;stroke:none;stroke-width:0.96499997;stroke-linecap:butt;stroke-linejoin:miter;stroke-miterlimit:4;stroke-dasharray:none;stroke-opacity:1"
       d="m -100.52563,129.37309 c -3.95871,2.6535 -6.07405,6.87164 -6.06836,11.19673 0.004,2.71663 1.21974,5.0686 3.12694,6.92826 h 6.970637 v -18.12499 z"
       id="path6143-6"
       mask="none" />
    <rect
       style="display:inline;opacity:1;fill:#8e7e64;fill-opacity:1;stroke:none;stroke-width:1.08629692;stroke-linecap:butt;stroke-linejoin:miter;stroke-miterlimit:4;stroke-dasharray:none;stroke-opacity:1;paint-order:stroke fill markers"
       id="rect4739"
       width="150"
       height="1.2292148"
       x="-106.49633"
       y="156.269"
       mask="none" />
    <rect
       style="display:inline;opacity:1;fill:#9ca9b2;fill-opacity:1;stroke:none;stroke-width:1.22202027;stroke-linecap:butt;stroke-linejoin:miter;stroke-miterlimit:4;stroke-dasharray:none;stroke-opacity:1;paint-order:stroke fill markers"
       id="rect6124"
       width="5"
       height="35.000061"
       x="-43.99633"
       y="122.49812"
       mask="none" />
    <rect
       style="display:inline;opacity:1;fill:#9ca9b2;fill-opacity:1;stroke:none;stroke-width:1.22202027;stroke-linecap:butt;stroke-linejoin:miter;stroke-miterlimit:4;stroke-dasharray:none;stroke-opacity:1;paint-order:stroke fill markers"
       id="rect6124-5"
       width="5"
       height="35.000061"
       x="18.503677"
       y="122.49812"
       mask="none" />
    <rect
       style="display:inline;opacity:1;fill:#8d8a79;fill-opacity:1;stroke:none;stroke-width:1.24347162;stroke-linecap:butt;stroke-linejoin:miter;stroke-miterlimit:4;stroke-dasharray:none;stroke-opacity:1;paint-order:stroke fill markers"
       id="rect6090-3-62-3"
       width="20"
       height="35.000008"
       x="-63.503662"
       y="122.49818"
       mask="none"
       transform="scale(-1,1)" />
    <rect
       style="display:inline;opacity:1;fill:#8d8a79;fill-opacity:1;stroke:none;stroke-width:2.10840869;stroke-linecap:butt;stroke-linejoin:miter;stroke-miterlimit:4;stroke-dasharray:none;stroke-opacity:1;paint-order:stroke fill markers"
       id="rect6090-3-7"
       width="57.5"
       height="35.000008"
       x="-126.00368"
       y="122.49818"
       mask="none"
       transform="scale(-1,1)" />
    <rect
       style="display:inline;opacity:1;fill:#212320;fill-opacity:1;stroke:none;stroke-width:1.33836615;stroke-linecap:butt;stroke-linejoin:miter;stroke-miterlimit:4;stroke-dasharray:none;stroke-opacity:1;paint-order:stroke fill markers"
       id="rect4739-2-5"
       width="155"
       height="3.6850462"
       x="-196.00366"
       y="156.31316"
       ry="1.8425231"
       mask="none"
       transform="scale(-1,1)" />
    <path
       style="display:inline;opacity:1;fill:#918d84;fill-opacity:1;fill-rule:evenodd;stroke:none;stroke-width:1.67442596;stroke-linecap:butt;stroke-linejoin:miter;stroke-miterlimit:4;stroke-dasharray:none;stroke-opacity:0.80053908"
       d="m 179.61552,122.47566 c 18.88816,2.52251 23.06532,24.29402 23.88804,27.52252 0,5 -7.49991,7.49981 -9.9999,7.49981 h -12.50003 z"
       id="path6141-9"
       mask="none" />
    <path
       style="display:inline;opacity:1;fill:#8c887c;fill-opacity:1;stroke:none;stroke-width:1.96610129;stroke-linecap:butt;stroke-linejoin:miter;stroke-miterlimit:4;stroke-dasharray:none;stroke-opacity:1;paint-order:stroke fill markers"
       d="m 179.70508,122.49805 1.29855,34.99994 H 131.0036 v -34.99994 z"
       id="rect6090-3-6-2"
       mask="none" />
    <path
       style="display:inline;fill:#8e7e64;fill-opacity:1;fill-rule:evenodd;stroke:#8d8a79;stroke-width:1;stroke-linecap:butt;stroke-linejoin:miter;stroke-miterlimit:4;stroke-dasharray:none;stroke-opacity:1;paint-order:fill markers stroke"
       d="m 43.503654,126.01153 135.188996,0.12557 c 9.69706,1.30798 15.28623,6.96405 15.27713,13.87771 -0.009,6.91366 -5.61288,12.55545 -12.79353,12.5951 l -137.672596,0.17466 z"
       id="path6143-2"
       mask="none" />
    <path
       style="display:inline;fill:#28170b;fill-opacity:1;fill-rule:evenodd;stroke:none;stroke-width:0.96499997;stroke-linecap:butt;stroke-linejoin:miter;stroke-miterlimit:4;stroke-dasharray:none;stroke-opacity:1"
       d="m 187.53297,129.37308 c 3.95869,2.65351 6.07404,6.87165 6.06835,11.19673 -0.004,2.71664 -1.21973,5.0686 -3.12695,6.92826 h -6.97061 v -18.12499 z"
       id="path6143-6-8"
       mask="none" />
    <rect
       style="display:inline;opacity:1;fill:#8e7e64;fill-opacity:1;stroke:none;stroke-width:1.08629692;stroke-linecap:butt;stroke-linejoin:miter;stroke-miterlimit:4;stroke-dasharray:none;stroke-opacity:1;paint-order:stroke fill markers"
       id="rect4739-9"
       width="150"
       height="1.2292148"
       x="-193.50366"
       y="156.269"
       mask="none"
       transform="scale(-1,1)" />
    <rect
       style="display:inline;opacity:1;fill:#9ca9b2;fill-opacity:1;stroke:none;stroke-width:1.22202027;stroke-linecap:butt;stroke-linejoin:miter;stroke-miterlimit:4;stroke-dasharray:none;stroke-opacity:1;paint-order:stroke fill markers"
       id="rect6124-7"
       width="5"
       height="35.000061"
       x="-131.00368"
       y="122.49812"
       mask="none"
       transform="scale(-1,1)" />
    <rect
       style="display:inline;opacity:1;fill:#9ca9b2;fill-opacity:1;stroke:none;stroke-width:1.22202027;stroke-linecap:butt;stroke-linejoin:miter;stroke-miterlimit:4;stroke-dasharray:none;stroke-opacity:1;paint-order:stroke fill markers"
       id="rect6124-5-3"
       width="5"
       height="35.000061"
       x="-68.503662"
       y="122.49812"
       mask="none"
       transform="scale(-1,1)" />
    <path
       style="display:inline;opacity:1;fill:#b4daff;fill-opacity:0.19241195;fill-rule:evenodd;stroke:#1d1f1c;stroke-width:1;stroke-linecap:butt;stroke-linejoin:miter;stroke-miterlimit:4;stroke-dasharray:none;stroke-opacity:1"
       d="m 188.39524,126.35203 c 7.18336,2.87996 13.0066,16.48679 13.32323,20.18998 l -16.13988,0.18998 -1.18837,-16.37643 z"
       id="path6141-3-6" />
    <path
       id="rect6169-1"
       d="m 178.50366,129.46901 h -10 V 151.969 h 10 z"
       style="display:inline;opacity:1;fill:#c1d8da;fill-opacity:0.94037936;stroke:#1d1f1c;stroke-width:1;stroke-linecap:butt;stroke-linejoin:miter;stroke-miterlimit:4;stroke-dasharray:none;stroke-opacity:1;paint-order:stroke fill markers" />
    <path
       id="rect6169-6-2"
       d="m 163.50367,129.46904 h -27.5 v 17.49998 h 27.5 z"
       style="display:inline;opacity:1;fill:#c1d8da;fill-opacity:0.94037936;stroke:#1d1f1c;stroke-width:1;stroke-linecap:butt;stroke-linejoin:miter;stroke-miterlimit:4;stroke-dasharray:none;stroke-opacity:1;paint-order:stroke fill markers" />
    <path
       id="rect6169-3-9"
       d="m 123.50367,129.99817 h -15 v 22.49999 h 15 z"
       style="display:inline;opacity:1;fill:#c1d8da;fill-opacity:0.94037936;stroke:#1d1f1c;stroke-width:1.22474492;stroke-linecap:butt;stroke-linejoin:miter;stroke-miterlimit:4;stroke-dasharray:none;stroke-opacity:1;paint-order:stroke fill markers" />
    <path
       id="rect6169-3-6-3"
       d="m 86.003674,129.99818 h -15.00001 v 22.5 h 15.00001 z"
       style="display:inline;opacity:1;fill:#c1d8da;fill-opacity:0.94037936;stroke:#1d1f1c;stroke-width:1.22474492;stroke-linecap:butt;stroke-linejoin:miter;stroke-miterlimit:4;stroke-dasharray:none;stroke-opacity:1;paint-order:stroke fill markers" />
    <path
       id="rect6169-3-7-1"
       d="M 106.00367,129.99817 H 88.503674 v 17.5 h 17.499996 z"
       style="display:inline;opacity:1;fill:#c1d8da;fill-opacity:0.94037936;stroke:#1d1f1c;stroke-width:1.16666698;stroke-linecap:butt;stroke-linejoin:miter;stroke-miterlimit:4;stroke-dasharray:none;stroke-opacity:1;paint-order:stroke fill markers" />
    <path
       id="rect6169-3-7-5-9"
       d="m 58.503664,129.99817 h -15.00001 v 17.5 h 15.00001 z"
       style="display:inline;opacity:1;fill:#c1d8da;fill-opacity:0.94037936;stroke:#1d1f1c;stroke-width:1.0801239;stroke-linecap:butt;stroke-linejoin:miter;stroke-miterlimit:4;stroke-dasharray:none;stroke-opacity:1;paint-order:stroke fill markers" />
    <ellipse
       style="display:inline;opacity:1;fill:url(#radialGradient4806);fill-opacity:1;stroke:none;stroke-width:0.51133001;stroke-linecap:butt;stroke-linejoin:miter;stroke-miterlimit:4;stroke-dasharray:none;stroke-opacity:1;paint-order:fill markers stroke"
       id="path4766-4"
       cx="201.01224"
       cy="149.94518"
       rx="2.4025645"
       ry="2.7206178" />
    <ellipse
       style="opacity:1;fill:url(#radialGradient4774);fill-opacity:1;stroke:none;stroke-width:0.51133001;stroke-linecap:butt;stroke-linejoin:miter;stroke-miterlimit:4;stroke-dasharray:none;stroke-opacity:1;paint-order:fill markers stroke"
       id="path4766"
       cx="-114.47341"
       cy="149.94516"
       rx="2.4025645"
       ry="2.7206178" />
    <path
       style="display:inline;opacity:1;fill:#b4daff;fill-opacity:0.19241195;fill-rule:evenodd;stroke:#1d1f1c;stroke-width:1;stroke-linecap:butt;stroke-linejoin:miter;stroke-miterlimit:4;stroke-dasharray:none;stroke-opacity:1"
       d="m -101.38791,126.35203 c -7.18337,2.87996 -13.0066,16.48679 -13.32323,20.18998 l 16.139863,0.18998 1.188384,-16.37643 z"
       id="path6141-3" />
    <path
       id="rect6169"
       d="m -91.496331,129.46901 h 9.999999 V 151.969 h -9.999999 z"
       style="display:inline;opacity:1;fill:#c1d8da;fill-opacity:0.94037936;stroke:#1d1f1c;stroke-width:1;stroke-linecap:butt;stroke-linejoin:miter;stroke-miterlimit:4;stroke-dasharray:none;stroke-opacity:1;paint-order:stroke fill markers" />
    <path
       id="rect6169-6"
       d="m -76.496331,129.46904 h 27.499995 v 17.49998 h -27.499995 z"
       style="display:inline;opacity:1;fill:#c1d8da;fill-opacity:0.94037936;stroke:#1d1f1c;stroke-width:1;stroke-linecap:butt;stroke-linejoin:miter;stroke-miterlimit:4;stroke-dasharray:none;stroke-opacity:1;paint-order:stroke fill markers" />
    <path
       id="rect6169-3"
       d="m -36.496332,129.99817 h 15.000002 v 22.49999 h -15.000002 z"
       style="display:inline;opacity:1;fill:#c1d8da;fill-opacity:0.94037936;stroke:#1d1f1c;stroke-width:1.22474492;stroke-linecap:butt;stroke-linejoin:miter;stroke-miterlimit:4;stroke-dasharray:none;stroke-opacity:1;paint-order:stroke fill markers" />
    <path
       id="rect6169-3-6"
       d="M 1.0036738,129.99818 H 16.003664 v 22.49999 H 1.0036738 Z"
       style="display:inline;opacity:1;fill:#c1d8da;fill-opacity:0.94037936;stroke:#1d1f1c;stroke-width:1.22474492;stroke-linecap:butt;stroke-linejoin:miter;stroke-miterlimit:4;stroke-dasharray:none;stroke-opacity:1;paint-order:stroke fill markers" />
    <path
       id="rect6169-3-7"
       d="m -18.996333,129.99817 h 17.5000068 v 17.5 H -18.996333 Z"
       style="display:inline;opacity:1;fill:#c1d8da;fill-opacity:0.94037936;stroke:#1d1f1c;stroke-width:1.16666698;stroke-linecap:butt;stroke-linejoin:miter;stroke-miterlimit:4;stroke-dasharray:none;stroke-opacity:1;paint-order:stroke fill markers" />
    <path
       id="rect6169-3-7-5"
       d="m 28.503674,129.99817 h 15 v 17.5 h -15 z"
       style="display:inline;opacity:1;fill:#c1d8da;fill-opacity:0.94037936;stroke:#1d1f1c;stroke-width:1.0801239;stroke-linecap:butt;stroke-linejoin:miter;stroke-miterlimit:4;stroke-dasharray:none;stroke-opacity:1;paint-order:stroke fill markers" />
  </g>
</svg>
